…
## Usage

The main functions of `nflreadr` are prefixed with `load_`.

``` r
library(nflreadr)

load_pbp(2021)
#> ── nflverse play by play data ──────────────────────────────────────────────────
#> ℹ Data updated: 2022-09-27 04:35:02 PDT
#> # A tibble: 50,712 × 372
#>    play_id game_id     old_game_id home_team away_team season_type  week posteam
#>      <dbl> <chr>       <chr>       <chr>     <chr>     <chr>       <int> <chr>  
#>  1       1 2021_01_AR… 2021091207  TEN       ARI       REG             1 <NA>   
#>  2      40 2021_01_AR… 2021091207  TEN       ARI       REG             1 TEN    
#>  3      55 2021_01_AR… 2021091207  TEN       ARI       REG             1 TEN    
#>  4      76 2021_01_AR… 2021091207  TEN       ARI       REG             1 TEN    
#>  5     100 2021_01_AR… 2021091207  TEN       ARI       REG             1 TEN    
#>  6     122 2021_01_AR… 2021091207  TEN       ARI       REG             1 TEN    
#>  7     152 2021_01_AR… 2021091207  TEN       ARI       REG             1 ARI    
#>  8     181 2021_01_AR… 2021091207  TEN       ARI       REG             1 ARI    
#>  9     218 2021_01_AR… 2021091207  TEN       ARI       REG             1 ARI    
#> 10     253 2021_01_AR… 2021091207  TEN       ARI       REG             1 ARI    
#> # ℹ 50,702 more rows
#> # ℹ 364 more variables: posteam_type <chr>, defteam <chr>, side_of_field <chr>,
#> #   yardline_100 <dbl>, game_date <chr>, quarter_seconds_remaining <dbl>,
#> #   half_seconds_remaining <dbl>, game_seconds_remaining <dbl>,
#> #   game_half <chr>, quarter_end <dbl>, …

load_player_stats(2021)
#> ── nflverse player stats: offense ──────────────────────────────────────────────
#> ℹ Data updated: 2023-02-28 01:26:47 PST
#> # A tibble: 5,698 × 52
#>    player_id  player_name player_display_name position position_group
#>    <chr>      <chr>       <chr>               <chr>    <chr>         
#>  1 00-0019596 T.Brady     Tom Brady           QB       QB            
#>  2 00-0019596 T.Brady     Tom Brady           QB       QB            
#>  3 00-0019596 T.Brady     Tom Brady           QB       QB            
#>  4 00-0019596 T.Brady     Tom Brady           QB       QB            
#>  5 00-0019596 T.Brady     Tom Brady           QB       QB            
#>  6 00-0019596 T.Brady     Tom Brady           QB       QB            
#>  7 00-0019596 T.Brady     Tom Brady           QB       QB            
#>  8 00-0019596 T.Brady     Tom Brady           QB       QB            
#>  9 00-0019596 T.Brady     Tom Brady           QB       QB            
#> 10 00-0019596 T.Brady     Tom Brady           QB       QB            
#> # ℹ 5,688 more rows
#> # ℹ 47 more variables: headshot_url <chr>, recent_team <chr>, season <int>,
#> #   week <int>, season_type <chr>, completions <int>, attempts <int>,
#> #   passing_yards <dbl>, passing_tds <int>, interceptions <dbl>, …
```
…
