Clean Home/Away in dataframes into Team/Opponent dataframes — clean_homeaway • nflreadr
…
    Examples

# \donttest{
# creating a small example dataframe!

cols <- c("season", "week", "home_team", "home_score",
          "away_team", "away_score", "result", "spread_line")

x <- load_schedules(2020)
x <- x[cols]

clean_homeaway(x, invert = c("result","spread_line"))

#> # A tibble: 538 × 9
#>    season  week team  team_score opponent opponent_score result spread_line
#>     <int> <int> <chr>      <int> <chr>             <int>  <dbl>       <dbl>
#>  1   2020     1 KC            34 HOU                  20     14         9.5
#>  2   2020     1 HOU           20 KC                   34    -14        -9.5
#>  3   2020     1 ATL           25 SEA                  38    -13         1  
#>  4   2020     1 SEA           38 ATL                  25     13        -1  
#>  5   2020     1 BAL           38 CLE                   6     32         7  
#>  6   2020     1 CLE            6 BAL                  38    -32        -7  
#>  7   2020     1 BUF           27 NYJ                  17     10         6.5
#>  8   2020     1 NYJ           17 BUF                  27    -10        -6.5
#>  9   2020     1 CAR           30 LV                   34     -4        -3  
#> 10   2020     1 LV            34 CAR                  30      4         3  
#> # … with 528 more rows, and 1 more variable: location <chr>
…
