Load FTN Charting Data — load_ftn_charting • nflreadr
…
    Author

    FTN Data

    Examples

# \donttest{
  try({ # prevents cran errors
  load_ftn_charting()
  })
#> ── nflverse FTN Charting Data - please attribute to 'ftndata.com via nflverse' ─
#> ℹ Data updated: 2023-12-21 18:11:43 UTC
#> # A tibble: 38,089 × 29
#>    ftn_game_id nflverse_game_id season  week ftn_play_id nflverse_play_id
#>  *       <int> <chr>             <int> <int>       <int>            <int>
#>  1        6164 2023_01_DET_KC     2023     1     1009770               40
#>  2        6164 2023_01_DET_KC     2023     1     1009771               56
#>  3        6164 2023_01_DET_KC     2023     1     1009772               78
#>  4        6164 2023_01_DET_KC     2023     1     1009773              101
#>  5        6164 2023_01_DET_KC     2023     1     1009774              124
#>  6        6164 2023_01_DET_KC     2023     1     1009775              150
#>  7        6164 2023_01_DET_KC     2023     1     1009776              172
#>  8        6164 2023_01_DET_KC     2023     1     1009777              194
#>  9        6164 2023_01_DET_KC     2023     1     1009778              219
#> 10        6164 2023_01_DET_KC     2023     1     1009779              244
#> # ℹ 38,079 more rows
#> # ℹ 23 more variables: starting_hash <chr>, qb_location <chr>,
#> #   n_offense_backfield <int>, n_defense_box <int>, is_no_huddle <lgl>,
#> #   is_motion <lgl>, is_play_action <lgl>, is_screen_pass <lgl>, is_rpo <lgl>,
#> #   is_trick_play <lgl>, is_qb_out_of_pocket <lgl>,
#> #   is_interception_worthy <lgl>, is_throw_away <lgl>, read_thrown <chr>,
#> #   is_catchable_ball <lgl>, is_contested_ball <lgl>, …
…
