…
## Author

FTN Data

## Examples

``` r
# \donttest{
  try({ # prevents cran errors
  load_ftn_charting()
  })
#> ── nflverse FTN Charting Data - please attribute to 'ftndata.com via nflverse' ─
#> ℹ Data updated: 2026-01-06 12:40:29 UTC
#> # A tibble: 45,064 × 29
#>    ftn_game_id nflverse_game_id season  week ftn_play_id nflverse_play_id
#>  *       <int> <chr>             <int> <int>       <int>            <int>
#>  1        6734 2025_01_DAL_PHI    2025     1     1106026               40
#>  2        6734 2025_01_DAL_PHI    2025     1     1106027               71
#>  3        6734 2025_01_DAL_PHI    2025     1     1106028              112
#>  4        6734 2025_01_DAL_PHI    2025     1     1106029              141
#>  5        6734 2025_01_DAL_PHI    2025     1     1106030              166
#>  6        6734 2025_01_DAL_PHI    2025     1     1106031              188
#>  7        6734 2025_01_DAL_PHI    2025     1     1106032              213
#>  8        6734 2025_01_DAL_PHI    2025     1     1106033              247
#>  9        6734 2025_01_DAL_PHI    2025     1     1106034              270
#> 10        6734 2025_01_DAL_PHI    2025     1     1106035              285
#> # ℹ 45,054 more rows
#> # ℹ 23 more variables: starting_hash <chr>, qb_location <chr>,
#> #   n_offense_backfield <int>, n_defense_box <int>, is_no_huddle <lgl>,
#> #   is_motion <lgl>, is_play_action <lgl>, is_screen_pass <lgl>, is_rpo <lgl>,
#> #   is_trick_play <lgl>, is_qb_out_of_pocket <lgl>,
#> #   is_interception_worthy <lgl>, is_throw_away <lgl>, read_thrown <chr>,
#> #   is_catchable_ball <lgl>, is_contested_ball <lgl>, …
…
