Load Play By Play — load_pbp • nflreadr
…
    The complete nflfastR dataset as returned by nflfastR::build_nflfastR_pbp()(see below) for all given seasons

    See also

    dictionary_pbp for the data dictionary as a dataframe

https://nflreadr.nflverse.com/articles/dictionary_pbp.html for a web version of the data dictionary

https://www.nflfastr.com/reference/build_nflfastR_pbp.html for the nflfastR function nflfastR::build_nflfastR_pbp()

    Examples

# \donttest{
  load_pbp(2019:2020)
#> # A tibble: 96,548 × 372
#>    play_id game_id     old_game_id home_team away_team season_type  week posteam
#>      <dbl> <chr>       <chr>       <chr>     <chr>     <chr>       <int> <chr>  
#>  1       1 2019_01_AT… 2019090804  MIN       ATL       REG             1 NA     
#>  2      36 2019_01_AT… 2019090804  MIN       ATL       REG             1 ATL    
#>  3      51 2019_01_AT… 2019090804  MIN       ATL       REG             1 ATL    
#>  4      79 2019_01_AT… 2019090804  MIN       ATL       REG             1 ATL    
#>  5     100 2019_01_AT… 2019090804  MIN       ATL       REG             1 ATL    
#>  6     121 2019_01_AT… 2019090804  MIN       ATL       REG             1 ATL    
#>  7     148 2019_01_AT… 2019090804  MIN       ATL       REG             1 MIN    
#>  8     185 2019_01_AT… 2019090804  MIN       ATL       REG             1 MIN    
#>  9     214 2019_01_AT… 2019090804  MIN       ATL       REG             1 MIN    
#> 10     239 2019_01_AT… 2019090804  MIN       ATL       REG             1 MIN    
#> # … with 96,538 more rows, and 364 more variables: posteam_type <chr>,
#> #   defteam <chr>, side_of_field <chr>, yardline_100 <dbl>, game_date <chr>,
#> #   quarter_seconds_remaining <dbl>, half_seconds_remaining <dbl>,
#> #   game_seconds_remaining <dbl>, game_half <chr>, quarter_end <dbl>,
#> #   drive <dbl>, sp <dbl>, qtr <dbl>, down <dbl>, goal_to_go <dbl>, time <chr>,
#> #   yrdln <chr>, ydstogo <dbl>, ydsnet <dbl>, desc <chr>, play_type <chr>,
#> #   yards_gained <dbl>, shotgun <dbl>, no_huddle <dbl>, qb_dropback <dbl>, …
…
