Load Latest FantasyPros Rankings — load_ff_rankings • nflreadr
…
    https://nflreadr.nflverse.com/articles/dictionary_ff_rankings.html for the web data dictionary

https://www.fantasypros.com for the source of data

Issues with this data should be filed here: https://github.com/dynastyprocess/data

    Examples

# \donttest{
try({ # prevents cran errors
load_ff_rankings()
})
#> ── nflverse FP expert rankings ─────────────────────────────────────────────────
#> ℹ Data updated: 2024-11-12 08:07:33 UTC
#> # A tibble: 5,393 × 25
#>    fp_page   page_type ecr_type player id    pos   team    ecr    sd  best worst
#>    <chr>     <chr>     <chr>    <chr>  <chr> <chr> <chr> <dbl> <dbl> <dbl> <dbl>
#>  1 /nfl/ran… dynasty-… dp       Kyle … 23494 DB    BAL     1     0       1     1
#>  2 /nfl/ran… dynasty-… dp       Derwi… 17310 DB    LAC     2     0       2     2
#>  3 /nfl/ran… dynasty-… dp       Jessi… 17544 DB    ATL     3.5   0.5     3     4
#>  4 /nfl/ran… dynasty-… dp       Antoi… 19266 DB    TB      3.5   0.5     3     4
#>  5 /nfl/ran… dynasty-… dp       Camry… 22757 DB    MIN     5     0       5     5
#>  6 /nfl/ran… dynasty-… dp       Jaqua… 23719 DB    CHI     6     0       6     6
#>  7 /nfl/ran… dynasty-… dp       Minka… 17278 DB    PIT     7     0       7     7
#>  8 /nfl/ran… dynasty-… dp       Xavie… 19216 DB    GB      8     0       8     8
#>  9 /nfl/ran… dynasty-… dp       Kyle … 19337 DB    NE     10.5   1.5     9    12
#> 10 /nfl/ran… dynasty-… dp       Brian… 25235 DB    DET    11     2       9    13
#> # ℹ 5,383 more rows
#> # ℹ 14 more variables: sportsdata_id <chr>, player_filename <chr>,
#> #   yahoo_id <chr>, cbs_id <chr>, player_owned_avg <dbl>,
#> #   player_owned_espn <dbl>, player_owned_yahoo <dbl>, player_image_url <chr>,
#> #   player_square_image_url <chr>, rank_delta <dbl>, bye <dbl>,
#> #   mergename <chr>, scrape_date <date>, tm <chr>
…
